character,team,health,bodyradius,bodysolid,canbeattacked,canbegrabbed,speed,approachtime,defaultattack,attackchoices,aiafterthrown,thrownrecovertime,healhealth,animation,animationdirections,script,initialai,holdai,hurtai,guardhitai,guardtime,aiafterhurt,guardcounterattack,guardhitstocounterattack,stunai,timetobreakhold,thrownai,knockedspeed,wallslamdamage,wallslamcounterattack,thrownrecoveranimation,defeatai,recoverai,aiaftergetup,aiafterbreakaway,attackafterbreakaway
Rose,player,100,16,TRUE,true,,,,,,fall,,,,8,Dragontail.Character.Player,control,hold,hurt,,,control,,,,,,,10,,getup,defeat,control,,,
bandit-dagger,enemy,50,16,TRUE,true,TRUE,3,,dagger-swing,,fall,24,,,4,Dragontail.Character.Enemy,stand,,hurt,,,stand,,,stun,120,thrown,10,,,collapseA,defeat,stand,,approach,
bandit-spear,enemy,75,16,TRUE,true,TRUE,4,,spear-thrust,,fall,24,,,4,Dragontail.Character.Enemy,stand,,hurt,,,stand,,,stun,120,thrown,10,,,collapseA,defeat,stand,,approach,
food-container,container,1,16,TRUE,true,,,,,,,,,container,,Dragontail.Character.Common,containerWaitForBreak,,containerBreak,,,,,,,,,,,,,containerBreak,,,,
food-fish,item,,18,,,,,,,,,,25,fish,,Dragontail.Character.Common,itemWaitForPickup,,,,,,,,,,,,,,,,,,,
food-bigfish,item,,18,,,,,,,,,,100,bigfish,,Dragontail.Character.Common,itemWaitForPickup,,,,,,,,,,,,,,,,,,,
bandit-axe,enemy,150,16,TRUE,true,TRUE,3,30,axe-throw,axe-swing axe-throw,fall,18,,,4,Dragontail.Character.Enemy,stand,,hurt,guardHit,30,guard,axe-swing,11,stun,60,thrown,8,,axe-swing,collapseA,defeat,stand,guard,attack,axe-swing
thrown-axe,enemy,1,16,TRUE,true,FALSE,10,,thrown-axe-attack,,,,,thrownaxe0,4,Dragontail.Character.Common,projectileFly,,projectileDeflected,,,,,,,,projectileFly,10,,,,,,,,
